{
  "id": 1,
  "difficulty": "easy",

  "chunks": [
    [{"id": 5, "reverse": false}, {"id": 2, "reverse": false}],
    [{"id": 4, "reverse": false}, {"id": 1, "reverse": false}],
    [{"id": 3, "reverse": false}, {"id": 6, "reverse": false}]
  ],

  "structures": [
    {
      "type": "castle",
      "color": "white",
      "positions": [0, 2]
    },
    {
      "type": "castle",
      "color": "green",
      "positions": [2, 10]
    },
    {
      "type": "castle",
      "color": "blue",
      "positions": [5, 4]
    },
    {
      "type": "well",
      "color": "white",
      "positions": [3, 9]
    },
    {
      "type": "well",
      "color": "green",
      "positions": [6, 6]
    },
    {
      "type": "well",
      "color": "blue",
      "positions": [8, 3]
    }
  ],

  "rules": [
    [
      {
        "type": "nearElement",
        "structures": [],
        "animals": ["puma"],
        "reverse": false
      },
      {
        "type": "nearStructure",
        "color": "green",
        "reverse": false
      },
      {
        "type": "insideBiomes",
        "biomes": ["swamp","lake"],
        "reverse": false
      }
    ],
    [
      {
        "type": "nearZone",
        "biomes": [],
        "animals": true,
        "reverse": false
      },
      {
        "type": "nearElement",
        "structures": ["castle"],
        "animals": [],
        "reverse": false
      },
      {
        "type": "insideBiomes",
        "biomes": ["forest", "lake"],
        "reverse": false
      },
      {
        "type": "nearStructure",
        "color": "blue",
        "reverse": false
      }
    ],
    [
      {
        "type": "nearElement",
        "structures": ["well"],
        "animals": [],
        "reverse": false
      },
      {
        "type": "nearZone",
        "biomes": [],
        "animals": true,
        "reverse": false
      },
      {
        "type": "insideBiomes",
        "biomes": ["forest", "mountain"],
        "reverse": false
      },
      {
        "type": "insideBiomes",
        "biomes": ["forest", "desert"],
        "reverse": false
      },
      {
        "type": "nearElement",
        "structures": ["castle"],
        "animals": [],
        "reverse": false
      }
    ]
  ]
}