[
  {
    "id": 1,
    "tiles": [
      [ { "type": "forest" }, { "type": "desert" }, { "type": "desert" }, { "type": "desert" }, { "type": "swamp" }, { "type": "swamp" } ],
      [ { "type": "forest" }, { "type": "forest" }, { "type": "desert" }, { "type": "lake" }, { "type": "swamp" }, { "type": "swamp" } ],
      [ { "type": "forest" }, { "type": "forest" }, { "type": "lake" }, { "type": "lake" }, { "type": "lake" }, { "type": "lake" } ]
    ],
    "animals": [
      {
        "type": "bear",
        "positions": [0, 0]
      },
      {
        "type": "bear",
        "positions": [0, 1]
      },
      {
        "type": "bear",
        "positions": [0, 2]
      }
    ]
  },
  {
    "id": 2,
    "tiles": [
      [ { "type": "swamp" }, { "type": "forest" }, { "type": "forest" }, { "type": "forest" }, { "type": "forest" }, { "type": "forest" } ],
      [ { "type": "swamp" }, { "type": "swamp" }, { "type": "forest" }, { "type": "desert" }, { "type": "desert" }, { "type": "desert" } ],
      [ { "type": "swamp" }, { "type": "mountain" }, { "type": "mountain" }, { "type": "mountain" }, { "type": "mountain" }, { "type": "desert" } ]
    ],
    "animals": [
      {
        "type": "puma",
        "positions": [0, 0]
      },
      {
        "type": "puma",
        "positions": [0, 1]
      },
      {
        "type": "puma",
        "positions": [0, 2]
      }
    ]
  },
  {
    "id": 3,
    "tiles": [
      [ { "type": "swamp" }, { "type": "swamp" }, { "type": "forest" }, { "type": "forest" }, { "type": "forest" }, { "type": "lake" } ],
      [ { "type": "swamp" }, { "type": "swamp" }, { "type": "forest" }, { "type": "mountain" }, { "type": "lake" }, { "type": "lake" } ],
      [ { "type": "mountain" }, { "type": "mountain" }, { "type": "mountain" }, { "type": "mountain" }, { "type": "lake" }, { "type": "lake" } ]
    ],
    "animals": [
      {
        "type": "puma",
        "positions": [2, 0]
      },
      {
        "type": "puma",
        "positions": [1, 0]
      },
      {
        "type": "puma",
        "positions": [1, 1]
      }
    ]
  },
  {
    "id": 4,
    "tiles": [
      [ { "type": "forest" }, { "type": "forest" }, { "type": "forest" }, { "type": "desert" }, { "type": "desert" }, { "type": "desert" } ],
      [ { "type": "lake" }, { "type": "lake" }, { "type": "lake" }, { "type": "mountain" }, { "type": "desert" }, { "type": "desert" } ],
      [ { "type": "mountain" }, { "type": "mountain" }, { "type": "mountain" }, { "type": "mountain" }, { "type": "desert" }, { "type": "desert" } ]
    ],
    "animals": [
      {
        "type": "puma",
        "positions": [0, 0]
      },
      {
        "type": "puma",
        "positions": [1, 0]
      }
    ]
  },
  {
    "id": 5,
    "tiles": [
      [ { "type": "swamp" }, { "type": "swamp" }, { "type": "swamp" }, { "type": "mountain" }, { "type": "mountain" }, { "type": "mountain" } ],
      [ { "type": "swamp" }, { "type": "desert" }, { "type": "desert" }, { "type": "lake" }, { "type": "mountain" }, { "type": "mountain" } ],
      [ { "type": "desert" }, { "type": "desert" }, { "type": "lake" }, { "type": "lake" }, { "type": "lake" }, { "type": "lake" } ]
    ],
    "animals": [
      {
        "type": "bear",
        "positions": [1, 5]
      },
      {
        "type": "bear",
        "positions": [2, 5]
      },
      {
        "type": "bear",
        "positions": [2, 4]
      }
    ]
  },
  {
    "id": 6,
    "tiles": [
      [ { "type": "forest" }, { "type": "lake" }, { "type": "lake" }, { "type": "lake" }, { "type": "lake" }, { "type": "mountain" } ],
      [ { "type": "forest" }, { "type": "forest" }, { "type": "swamp" }, { "type": "swamp" }, { "type": "mountain" }, { "type": "mountain" } ],
      [ { "type": "forest" }, { "type": "swamp" }, { "type": "swamp" }, { "type": "swamp" }, { "type": "desert" }, { "type": "desert" } ]
    ],
    "animals": [
      {
        "type": "bear",
        "positions": [1, 5]
      },
      {
        "type": "bear",
        "positions": [2, 5]
      }
    ]
  }
]
